Chinese Debt in Africa
…
    Environment
1 (<0.1%)

    Other commodity
1 (<0.1%)

    Allocation
42,000,000 (13,000,000, 110,500,000)

      1 n (%); Median (IQR)

Slide with Plot

## # A tibble: 43 x 2
##    Lender                                                                  Total
##    <chr>                                                                   <dbl>
##  1 CHEXIM                                                                8.70e10
##  2 CDB                                                                   3.88e10
##  3 ICBC                                                                  9.91e 9
##  4 MixedCN: Industrial and Commercial Bank of China Ltd. (ICBC), Exp~    3.7 e 9
##  5 Zhongxing Telecommunication Equipment Corporation (ZTE)               2.58e 9
##  6 MixedCN: CHEXIM, Industrial and Commercial Bank of China, Bank of~    2.5 e 9
##  7 CIDCA                                                                 2.23e 9
##  8 BoC                                                                   2.00e 9
##  9 MixedCN: Export-Import Bank of China (CHEXIM), Industrial and Com~    1.5 e 9
## 10 China Machinery Engineering Corporation (CMEC)                        1.35e 9
## # ... with 33 more rows

## # A tibble: 50 x 2
##    Country                 Total
##    <chr>                   <dbl>
##  1 Angola            42647000000
##  2 Ethiopia          13706000000
##  3 Zambia            10040000000
##  4 Kenya              9286000000
##  5 Egypt              7821000000
##  6 Nigeria            7300000000
##  7 Cameroon           6196000000
##  8 South Africa       5410000000
##  9 Republic of Congo  5382000000
## 10 Ghana              5269000000
## # ... with 40 more rows
…
## # A tibble: 1,188 x 8
## # Groups:   Country [50]
##     S.no Project      Year       Lender     `$ Allocation` Country `Invested On`
##    <dbl> <chr>        <date>     <chr>      <chr>          <chr>   <chr>        
##  1   714 Sonangol Re~ 2016-05-20 CDB        $10.0B         Angola  Mining       
##  2  1106 Caculo Caba~ 2016-05-20 MixedCN: ~ $3.7B          Angola  Power        
##  3   397 Kilamba Kia~ 2010-05-20 ICBC       $2.5B          Angola  Other social 
##  4   523 Sonangol De~ 2013-05-20 CDB        $2.5B          Angola  Mining       
##  5   197 New Cairo C~ 2019-05-20 MixedCN: ~ $2.5B          Egypt   Government   
##  6  1006 Multisector  2017-05-20 CDB        $2.2B          Angola  Multisector  
##  7    76 Sonangol De~ 2011-05-20 CDB        $2.0B          Angola  Mining       
##  8   634 Sonangol De~ 2014-05-20 CDB        $2.0B          Angola  Mining       
##  9   758 SGR Phase I~ 2014-05-20 CHEXIM     $2.0B          Kenya   Transportati~
## 10    82 Millenium P~ 2006-05-20 Zhongxing~ $1.9B          Ethiop~ ICT          
## # ... with 1,178 more rows, and 1 more variable: Allocation <dbl>
…
